<svg width="1920" height="1082" viewBox="0 0 1920 1082" fill="none" xmlns="http://www.w3.org/2000/svg">
<circle cx="731" cy="541" r="83" fill="white"/>
<path fill-rule="evenodd" clip-rule="evenodd" d="M1920 0H0V1082H1920V0ZM949 624C994.84 624 1032 586.84 1032 541C1032 495.16 994.84 458 949 458C903.16 458 866 495.16 866 541C866 586.84 903.16 624 949 624Z" fill="white"/>
<path fill-rule="evenodd" clip-rule="evenodd" d="M1363.67 554.112L1433.61 469.981V631.932H1445.18V452.104H1429.4L1363.67 537.811L1294.79 452.104H1280.06L1363.67 554.112Z" fill="#FF6150"/>
<path fill-rule="evenodd" clip-rule="evenodd" d="M866.228 540.966C866.228 529.924 868.332 518.882 872.539 508.891C876.746 498.901 882.53 490.488 890.418 483.126C897.779 475.765 906.719 469.981 916.709 465.774C926.701 461.568 937.744 459.465 948.786 459.465C959.829 459.465 970.345 461.568 980.863 465.774C990.853 469.981 999.793 475.765 1007.15 483.126C1015.04 490.488 1020.83 499.427 1025.03 508.891C1029.24 518.882 1031.34 529.924 1031.34 540.966C1031.34 552.008 1029.24 563.05 1025.03 573.041C1020.83 583.031 1015.04 591.444 1007.15 599.332C999.267 606.693 990.853 612.477 980.863 616.683C970.871 620.89 959.829 622.993 948.786 622.993C937.744 622.993 927.227 620.89 916.709 616.683C906.719 612.477 898.305 606.693 890.418 599.332C882.53 591.97 876.746 583.031 872.539 573.041C868.332 563.05 866.228 552.008 866.228 540.966ZM853.083 541.492C853.083 554.111 855.712 566.205 860.97 577.773C866.228 588.815 873.065 598.279 882.004 606.693C890.943 615.106 901.46 621.416 912.503 626.148C924.072 630.88 936.166 632.983 948.786 632.983C961.406 632.983 973.5 630.88 985.069 626.148C996.638 621.416 1006.63 615.106 1015.57 606.693C1024.51 598.279 1031.34 588.815 1036.6 577.773C1041.86 566.205 1044.49 554.111 1044.49 541.492C1044.49 528.872 1041.86 516.778 1036.6 505.211C1031.34 494.168 1024.51 484.178 1015.57 476.291C1006.63 467.878 996.638 461.568 985.069 456.836C973.5 452.103 961.406 450 948.786 450C936.166 450 924.072 452.103 912.503 456.836C900.935 461.568 890.943 467.878 882.004 476.291C873.065 484.704 866.228 494.168 860.97 505.211C855.186 516.778 853.083 528.872 853.083 541.492ZM650.107 540.966C650.107 529.924 652.21 518.882 656.417 508.891C660.624 498.901 666.408 490.488 674.296 483.126C681.658 475.765 690.597 469.981 700.588 465.774C710.579 461.568 721.622 459.465 732.665 459.465C743.707 459.465 754.224 461.568 764.741 465.774C774.732 469.981 783.671 475.765 791.033 483.126C798.92 490.488 804.705 499.427 808.912 508.891C813.118 518.882 815.222 529.924 815.222 540.966C815.222 552.008 813.118 563.05 808.912 573.041C804.705 583.031 798.92 591.444 791.033 599.332C783.146 606.693 774.732 612.477 764.741 616.683C754.75 620.89 743.707 622.993 732.665 622.993C721.622 622.993 711.105 620.89 700.588 616.683C690.597 612.477 682.183 606.693 674.296 599.332C666.408 591.97 660.624 583.031 656.417 573.041C652.21 563.05 650.107 552.008 650.107 540.966ZM636.961 541.492C636.961 554.111 639.59 566.205 644.849 577.773C650.107 588.815 656.943 598.279 665.882 606.693C674.822 615.106 685.339 621.416 696.381 626.148C707.95 630.88 720.044 632.983 732.665 632.983C745.284 632.983 757.379 630.88 768.948 626.148C780.516 621.416 790.507 615.106 799.447 606.693C808.386 598.279 815.222 588.815 820.48 577.773C825.739 566.205 828.368 554.111 828.368 541.492C828.368 528.872 825.739 516.778 820.48 505.211C815.222 494.168 808.386 484.178 799.447 476.291C790.507 467.878 780.516 461.568 768.948 456.836C757.379 452.103 745.284 450 732.665 450C720.044 450 707.95 452.103 696.381 456.836C684.813 461.568 674.822 467.878 665.882 476.291C656.943 484.704 650.107 494.168 644.849 505.211C639.064 516.778 636.961 528.872 636.961 541.492Z" fill="#FF6150"/>
<circle cx="1164" cy="541" r="83" fill="white"/>
<path fill-rule="evenodd" clip-rule="evenodd" d="M533.894 533.605L596.995 630.88H610.142L550.722 539.914L555.454 537.285C562.816 533.605 570.178 526.769 574.91 520.459C579.643 514.15 581.221 506.262 581.221 498.375C581.221 487.333 578.591 477.343 570.704 469.455C562.816 461.568 553.351 456.836 542.308 454.207C534.42 452.103 523.903 452.104 515.49 452.104C501.818 452.104 488.672 452.104 475 452.104V461.568H527.058C539.679 461.568 557.557 467.878 563.868 479.446C570.703 491.54 571.229 507.84 561.764 518.356C557.031 523.614 550.722 527.295 543.886 529.398C540.73 531.501 537.575 532.553 533.894 533.605Z" fill="#FF6150"/>
<path fill-rule="evenodd" clip-rule="evenodd" d="M1068.16 541.492C1068.16 554.111 1070.78 566.205 1076.04 577.773C1081.3 588.815 1088.14 598.279 1097.08 606.693C1106.02 615.106 1116.53 621.416 1127.58 626.148C1139.14 630.88 1151.24 632.983 1163.86 632.983C1176.48 632.983 1188.57 630.88 1200.14 626.148C1211.71 621.416 1221.7 615.106 1230.64 606.693C1239.58 598.279 1246.42 588.815 1251.67 577.773C1256.93 566.205 1259.56 554.111 1259.56 541.492C1259.56 528.872 1256.93 516.778 1251.67 505.211C1246.42 494.168 1239.58 484.178 1230.64 476.291C1221.7 467.878 1211.71 461.568 1200.14 456.836C1188.57 452.103 1176.48 450 1163.86 450C1151.24 450 1139.14 452.103 1127.58 456.836C1116.01 461.568 1106.02 467.878 1097.08 476.291C1088.14 484.704 1081.3 494.168 1076.04 505.211C1070.78 516.778 1068.16 528.872 1068.16 541.492ZM1081.3 540.966C1081.3 529.924 1083.4 518.882 1087.61 508.891C1091.82 498.901 1097.6 490.488 1105.49 483.126C1112.85 475.765 1121.79 469.981 1131.78 465.774C1141.77 461.568 1152.82 459.465 1163.86 459.465C1174.9 459.465 1185.42 461.568 1195.94 465.774C1205.93 469.981 1214.87 475.765 1222.23 483.126C1230.11 490.488 1235.9 499.427 1240.11 508.891C1244.31 518.882 1246.42 529.924 1246.42 540.966C1246.42 552.008 1244.31 563.05 1240.11 573.041C1235.9 583.031 1230.11 591.444 1222.23 599.332C1214.34 606.693 1205.93 612.477 1195.94 616.683C1185.94 620.89 1174.9 622.993 1163.86 622.993C1152.82 622.993 1142.3 620.89 1131.78 616.683C1121.79 612.477 1113.38 606.693 1105.49 599.332C1097.6 591.97 1091.82 583.031 1087.61 573.041C1083.4 563.05 1081.3 552.008 1081.3 540.966Z" fill="#FF6150"/>
</svg>
