<svg width="375" height="667" viewBox="0 0 375 667" fill="none" xmlns="http://www.w3.org/2000/svg">
<path fill-rule="evenodd" clip-rule="evenodd" d="M375 667H0V0H375V667ZM185.029 357.268C197.683 357.268 207.941 347.01 207.941 334.356C207.941 321.702 197.683 311.443 185.029 311.443C172.374 311.443 162.116 321.702 162.116 334.356C162.116 347.01 172.374 357.268 185.029 357.268Z" fill="white"/>
<path fill-rule="evenodd" clip-rule="evenodd" d="M299.5 337.975L318.806 314.751V359.458H322V309.815H317.645L299.5 333.475L280.483 309.815H276.419L299.5 337.975Z" fill="#FF6150"/>
<path fill-rule="evenodd" clip-rule="evenodd" d="M162.179 334.346C162.179 331.298 162.76 328.25 163.921 325.492C165.082 322.734 166.679 320.411 168.857 318.379C170.889 316.347 173.356 314.75 176.114 313.589C178.873 312.428 181.921 311.847 184.969 311.847C188.018 311.847 190.921 312.428 193.824 313.589C196.582 314.75 199.05 316.347 201.082 318.379C203.26 320.411 204.856 322.879 206.018 325.492C207.179 328.25 207.76 331.298 207.76 334.346C207.76 337.394 207.179 340.443 206.018 343.201C204.856 345.958 203.26 348.281 201.082 350.458C198.905 352.49 196.582 354.087 193.824 355.248C191.066 356.41 188.018 356.99 184.969 356.99C181.921 356.99 179.018 356.41 176.114 355.248C173.356 354.087 171.034 352.49 168.857 350.458C166.679 348.426 165.082 345.958 163.921 343.201C162.76 340.443 162.179 337.394 162.179 334.346ZM158.55 334.491C158.55 337.975 159.276 341.314 160.727 344.507C162.179 347.555 164.066 350.168 166.534 352.49C169.002 354.813 171.905 356.555 174.953 357.861C178.147 359.167 181.486 359.748 184.969 359.748C188.453 359.748 191.792 359.167 194.986 357.861C198.179 356.555 200.937 354.813 203.405 352.49C205.873 350.168 207.76 347.555 209.211 344.507C210.663 341.314 211.389 337.975 211.389 334.491C211.389 331.008 210.663 327.669 209.211 324.476C207.76 321.428 205.873 318.67 203.405 316.492C200.937 314.17 198.179 312.428 194.986 311.122C191.792 309.815 188.453 309.235 184.969 309.235C181.486 309.235 178.147 309.815 174.953 311.122C171.76 312.428 169.002 314.17 166.534 316.492C164.066 318.815 162.179 321.428 160.727 324.476C159.131 327.669 158.55 331.008 158.55 334.491ZM102.518 334.346C102.518 331.298 103.098 328.25 104.26 325.492C105.421 322.734 107.018 320.411 109.195 318.379C111.227 316.347 113.695 314.75 116.453 313.589C119.211 312.428 122.26 311.847 125.308 311.847C128.356 311.847 131.26 312.428 134.163 313.589C136.921 314.75 139.389 316.347 141.421 318.379C143.598 320.411 145.195 322.879 146.356 325.492C147.518 328.25 148.098 331.298 148.098 334.346C148.098 337.394 147.518 340.443 146.356 343.201C145.195 345.958 143.598 348.281 141.421 350.458C139.244 352.49 136.921 354.087 134.163 355.248C131.405 356.41 128.356 356.99 125.308 356.99C122.26 356.99 119.356 356.41 116.453 355.248C113.695 354.087 111.373 352.49 109.195 350.458C107.018 348.426 105.421 345.958 104.26 343.201C103.098 340.443 102.518 337.394 102.518 334.346ZM98.8887 334.491C98.8887 337.975 99.6145 341.314 101.066 344.507C102.518 347.555 104.405 350.168 106.873 352.49C109.34 354.813 112.244 356.555 115.292 357.861C118.485 359.167 121.824 359.748 125.308 359.748C128.792 359.748 132.131 359.167 135.324 357.861C138.518 356.555 141.276 354.813 143.744 352.49C146.211 350.168 148.098 347.555 149.55 344.507C151.002 341.314 151.727 337.975 151.727 334.491C151.727 331.008 151.002 327.669 149.55 324.476C148.098 321.428 146.211 318.67 143.744 316.492C141.276 314.17 138.518 312.428 135.324 311.122C132.131 309.815 128.792 309.235 125.308 309.235C121.824 309.235 118.485 309.815 115.292 311.122C112.098 312.428 109.34 314.17 106.873 316.492C104.405 318.815 102.518 321.428 101.066 324.476C99.4693 327.669 98.8887 331.008 98.8887 334.491Z" fill="#FF6150"/>
<circle cx="244.379" cy="334.356" r="22.9125" fill="white"/>
<path fill-rule="evenodd" clip-rule="evenodd" d="M70.4368 332.314L87.8561 359.168H91.4852L75.082 334.056L76.3885 333.33C78.4207 332.314 80.453 330.427 81.7594 328.685C83.0659 326.944 83.5014 324.766 83.5014 322.589C83.5014 319.541 82.7754 316.783 80.5982 314.605C78.4207 312.428 75.8078 311.122 72.7594 310.396C70.582 309.815 67.6787 309.815 65.3561 309.815C61.5819 309.815 57.9529 309.815 54.1787 309.815V312.428H68.5497C72.0336 312.428 76.969 314.17 78.711 317.363C80.598 320.702 80.7432 325.202 78.1303 328.105C76.8238 329.556 75.082 330.572 73.1949 331.153C72.3239 331.734 71.4529 332.024 70.4368 332.314Z" fill="#FF6150"/>
<path fill-rule="evenodd" clip-rule="evenodd" d="M217.921 334.491C217.921 337.975 218.647 341.314 220.098 344.507C221.55 347.555 223.437 350.168 225.905 352.49C228.373 354.813 231.276 356.555 234.324 357.861C237.518 359.167 240.856 359.748 244.34 359.748C247.824 359.748 251.163 359.167 254.356 357.861C257.55 356.555 260.308 354.813 262.776 352.49C265.244 350.168 267.131 347.555 268.582 344.507C270.034 341.314 270.76 337.975 270.76 334.491C270.76 331.008 270.034 327.669 268.582 324.476C267.131 321.428 265.244 318.67 262.776 316.492C260.308 314.17 257.55 312.428 254.356 311.122C251.163 309.815 247.824 309.235 244.34 309.235C240.856 309.235 237.518 309.815 234.324 311.122C231.131 312.428 228.373 314.17 225.905 316.492C223.437 318.815 221.55 321.428 220.098 324.476C218.647 327.669 217.921 331.008 217.921 334.491ZM221.55 334.346C221.55 331.298 222.131 328.25 223.292 325.492C224.453 322.734 226.05 320.411 228.227 318.379C230.26 316.347 232.727 314.75 235.485 313.589C238.244 312.428 241.292 311.847 244.34 311.847C247.389 311.847 250.292 312.428 253.195 313.589C255.953 314.75 258.421 316.347 260.453 318.379C262.631 320.411 264.228 322.879 265.389 325.492C266.55 328.25 267.131 331.298 267.131 334.346C267.131 337.394 266.55 340.443 265.389 343.201C264.228 345.958 262.631 348.281 260.453 350.458C258.276 352.49 255.953 354.087 253.195 355.248C250.437 356.41 247.389 356.99 244.34 356.99C241.292 356.99 238.389 356.41 235.485 355.248C232.727 354.087 230.405 352.49 228.227 350.458C226.05 348.426 224.453 345.958 223.292 343.201C222.131 340.443 221.55 337.394 221.55 334.346Z" fill="#FF6150"/>
</svg>
