<svg width="25" height="20" viewBox="0 0 25 20" fill="none" xmlns="http://www.w3.org/2000/svg">
<path d="M9.6907 3.82201C8.91307 4.59965 5.93401 7.57871 4.41925 9.08885L24.6328 9.08885L24.6328 10.9081L4.45105 10.9081C5.97913 12.4408 8.94469 15.4108 9.71326 16.1796C10.7684 17.2347 9.71326 19.3359 9.71326 19.3359L0.366745 9.98036L9.68146 0.665645C9.69052 0.665645 10.7458 2.77131 9.6907 3.82201Z" fill="#ffffff"/>
</svg>
