<svg width="25" height="20" viewBox="0 0 25 20" fill="none" xmlns="http://www.w3.org/2000/svg">
<path d="M15.3093 3.82201C16.0869 4.59965 19.066 7.57871 20.5807 9.08885L0.367187 9.08885L0.367187 10.9081L20.549 10.9081C19.0209 12.4408 16.0553 15.4108 15.2867 16.1796C14.2316 17.2347 15.2867 19.3359 15.2867 19.3359L24.6333 9.98036L15.3185 0.665645C15.3095 0.665645 14.2542 2.77131 15.3093 3.82201Z" fill="#C5C5C5"/>
</svg>
